9845|220.62|s against the fluffily special packages snooze slyly slyly regular p
2770|149.66|hould have to nag after the blithely final asymptotes. fluffily spe
5507|392.33|gular theodolites nag carefully furiously ironic requ
