K|15687|18573|25277|15311|15581|2065|27205|10841|30106|2937|25610|32053|18570|13232|9538|16065
A|20371|578|31611|8141|29860|5538|28578|21191|17961|24398|9520|20600|4799|32081|1703|3068
T|745|17629|19969|19385|13454|12968|1317|574|28565|16134|21193|24254|17306|1585|17942|32438
T|2969|16763|11022|554|15806|18934|30738|13251|4688|29123|23375|32005|606|14790|20154|21361
T|25354|24837|20752|15140|2868|22702|23655|5780|10474|23737|10231|28948|9954|26784|32380|15206
U|27699|16427|3785|24920|31364|15869|19529|6052|20481|8817|22563|10489|13710|21785|5375|6662
13|14026|11655|16671|9206|10670|13759|14233|15695|12302|1886|23922|1913|27719|22635|943|9399
14|17497|28280|21697|10197|23524|12904|31242|28323|26595|6378|28635|28969|23221|18722|2039|9930
15|23194|28082|7837|31537|2426|1326|26278|18100|4520|21149|254|21559|11900|4137|15360|18080
16|52|31226|24651|3440|24398|8528|14610|6496|17838|23265|16470|29918|21387|1737|12956|28641
17|24084|12234|6189|30203|751|20562|30818|10688|9898|15051|16147|5310|25949|27012|9031|15934
18|8438|19810|3133|9540|13767|24832|7916|21153|28072|21992|19231|15336|17432|11331|324|21926
19|14824|22724|26521|8574|757|21363|17527|6635|16964|18459|9820|4278|31193|26434|30573|13520
20|1303|22409|5786|1928|9586|13007|4468|5670|14345|12079|23614|6254|11188|30314|29282|22068
21|18025|29522|19787|18144|19522|8168|25199|13829|22292|1446|10626|19952|25992|24927|21239|673
22|20381|5682|32174|20019|13108|23240|12988|5947|18966|5195|32601|29777|18038|6197|2840|31506
23|2929|31018|30665|30685|150|7001|20091|18729|19363|284|32462|11773|2262|17324|5710|4361
24|17401|13361|15945|30931|501|8341|23510|3664|30600|14692|12546|8070|16009|22654|26918|770
25|13242|20646|30756|15085|31609|3890|27072|26462|3328|9643|14629|32615|6726|7548|1016|19813
26|28080|24209|21047|16756|31968|6273|6570|16280|18472|5556|9536|15758|30476|2884|30798|6301
27|10063|23945|10875|14111|11008|23417|4004|11994|10231|30312|18306|20161|5645|21453|27274|19349
28|31468|29497|25710|5941|26654|19545|13447|15438|18835|4923|11206|29571|16297|18309|10216|11650
29|23238|16519|15696|10002|21874|30525|29642|10587|18835|8471|5481|23005|30210|12893|20058|7136
30|26297|18675|31301|1851|25987|11046|6874|31615|32014|19996|22009|8440|22423|10221|3689|23253
31|12826|9465|487|12804|24966|22551|5952|8307|32337|21214|11247|31145|26372|28394|1693|23326
32|27916|2353|19598|13022|14414|14670|25914|30141|29818|19326|3113|13294|7333|15591|12707|4681
33|15698|1305|22046|9551|11382|10591|28347|26842|23944|25671|8600|16874|16822|26025|23142|13943
34|2807|15287|11047|11360|31304|25588|25460|12090|16732|20833|22689|1462|9584|32548|14399|3004
35|5265|31663|24042|19589|30077|2518|30103|13938|21808|25337|32510|1608|9076|19457|2498|22113
36|10632|22353|18940|28870|7096|6239|12816|27574|9645|14443|11311|27493|29328|32029|16169|22519
37|25743|17481|16549|12469|31584|782|24418|21320|15084|4445|16537|11627|4159|28279|30091|14210
38|31643|14767|20451|3521|16486|5783|27076|30554|4495|5298|25948|14135|16390|1043|16944|9700
39|23493|2846|8683|30366|14480|7838|30206|7838|21367|1717|7401|19428|15354|19742|5569|29089
40|18937|18562|30993|30147|12684|15119|30762|13226|3852|3310|15204|16941|21130|8815|24340|20843
41|9609|2937|29728|2636|10531|31096|30625|10418|560|17970|13995|20063|26350|14342|22371|25267
42|32165|4606|30677|7813|21350|8678|20456|19761|7231|18245|16750|15957|2977|12207|24309|1143
43|29272|3483|28000|28766|26050|16559|27034|22056|5830|24727|1303|27094|7878|6962|12184|17092
44|9887|20680|20228|14243|20485|12790|18322|27231|16106|11930|21067|4228|7931|5709|24136|9848
45|13753|14298|27021|21858|25759|23444|7822|21396|22909|22013|7142|30381|3639|2978|29855|12557
46|8504|14532|31161|10222|6753|6278|19930|25623|32278|9704|26343|2785|24111|967|22485|3762
47|29039|32226|16743|6381|8957|22351|16997|20842|9929|8880|30927|12206|31020|4520|20137|31445
48|1289|17359|27091|14935|29940|6600|14724|14880|26404|4180|8880|797|7820|11384|11617|4115
49|31289|29269|21409|12788|25304|7621|13068|30406|926|21584|3082|1390|6559|21909|26864|6481
50|19101|18994|14174|15723|27943|20681|25857|31201|22059|22217|28362|13864|7043|26291|18272|16629
51|28824|13187|2879|7455|312|13598|29356|21550|17252|1188|29191|22529|29963|20110|8964|2218
52|30289|30145|30441|30119|20395|7040|10456|8288|22139|19311|9505|16546|7790|6902|26265|946
53|18904|22833|26933|23439|17418|2436|1316|9762|12016|27846|4689|12812|29093|14321|31897|23701
54|28931|21170|18324|8068|22299|30830|19477|7601|10418|31782|25236|12905|10745|26738|25253|4745
55|8304|28251|24461|18651|23460|13875|29450|13468|3277|6663|5237|21792|20605|29586|6337|32101
56|9638|1489|10045|19074|23209|18574|14078|10531|29672|12246|22478|22094|18323|10740|10698|12763
